{
  "invocationId": "1a4072cd-c70c-4ca9-87d0-deb81c50ada5",
  "records": [
    {
      "recordId": "49624726681625080004286597647519782632380879253335441410000005",
      "approximateArrivalTimestamp": 1639584501075,
      "data": "eyJldmVudF9uYW1lIjoiZmxvd19jYXB0dXJlIiwiZXZlbnRfdGltZXN0YW1w\nIjoiMjAyMi0wMi0wOCAwMDoxNjoyMS4yNDNaIiwiY29udGV4dCI6eyJmbG93\nX25hbWUiOiJ1c2VyX2luZm8iLCJvcmdfaWQiOjcwLCJmbG93X2RhdGEiOnsi\nd29ya19waG9uZSI6bnVsbCwiaG9tZV9waG9uZSI6IjQxNTAwMDEyMzQiLCJj\nZWxsX3Bob25lIjoiNDE1MDAwMTIzNCIsImZpcnN0X25hbWUiOiJKb2huIiwi\nbGFzdF9uYW1lIjoiRG9lIiwidXNlcl9uYW1lIjoiSm9obiBEb2UiLCJ1c2Vy\nX21vYmlsZSI6IjQxNTAwMDEyMzQifSwidmVuZG9yX2lkIjoiY3JtX3RyYW5z\nYWN0aW9uIiwidmVuZG9yX2VuZHBvaW50IjoibG9jYWxob3N0IiwicGFnZV91\ncmwiOiJodHRwOi8vbG9jYWxob3N0OjQ0NDQvY3JtL3RyYW5zYWN0aW9uLmh0\nbWwiLCJ0cmFuc2FjdGlvbl9pZCI6IjU1NGYxZmFmMDFlMTQ0Mjk5MTVmMTY1\nN2MxMTEwYmE5IiwiYXV0b2xpbmtfdmVuZG9yX2lkIjoiY3JtIn19\n"
    },
    {
      "recordId": "49624726681625080004286603010372746882283384273404690434000000",
      "approximateArrivalTimestamp": 1643054367753,
      "data": "eyJldmVudF9uYW1lIjoiZmxvd19jYXB0dXJlIiwiZXZlbnRfdGltZXN0YW1w\nIjoiMjAyMi0wMS0yNCAxOTo1OToyNi44MzRaIiwiY29udGV4dCI6eyJmbG93\nX25hbWUiOiJmdW5kaW5nX3N0YXR1cyIsIm9yZ19pZCI6NzAsImZsb3dfZGF0\nYSI6eyJmdW5kaW5nX3N0YXR1cyI6IlJGIiwibG9hbl9zdGF0dXMiOiJBUFAi\nfSwidmVuZG9yX2lkIjoiY3JtX2Z1bmRpbmciLCJ2ZW5kb3JfZW5kcG9pbnQi\nOiJsb2NhbGhvc3QiLCJwYWdlX3VybCI6Imh0dHA6Ly9sb2NhbGhvc3Q6NDQ0\nNC9jcm0vZnVuZGluZy5odG1sIiwidHJhbnNhY3Rpb25faWQiOiI1NTRmMWZh\nZjAxZTE0NDI5OTE1ZjE2NTdjMTExMGJhOSIsImF1dG9saW5rX3ZlbmRvcl9p\nZCI6ImNybSJ9fQ==\n"
    },
    {
      "recordId": "49624726681625080004286597647519782632380879253335441410000006",
      "approximateArrivalTimestamp": 1639584601075,
      "data": "eyJldmVudF9uYW1lIjoiaW5wdXRfY2hhbmdlIiwiZXZlbnRfdGltZXN0YW1w\nIjoiMjAyMS0xMi0xNSAxNjoxMDowMS4wNzVaIiwiY29udGV4dCI6eyJvcmdf\naWQiOjM0LCJ2ZW5kb3JfaWQiOiJjcm1fdHJhbnNhY3Rpb24iLCJ2ZW5kb3Jf\nZW5kcG9pbnQiOiJjcm0uZGVtby5jb20iLCJwYWdlX3VybCI6Imh0dHBzOi8v\nY3JtLmRlbW8uY29tL3Nob3J0X2FwcGxpY2F0aW9uLmh0bWwiLCJ0cmFuc2Fj\ndGlvbl9pZCI6IlE4YWtIREpoMmUwV01Sem9RNk5JZzY2TXF0R1pFcjd6Iiwi\nYXV0b2xpbmtfdmVuZG9yX2lkIjoiY3JtIiwiZWxlbWVudF9uYW1lIjoicHJl\nJHNiJGxzJGNib1N0YXR1cyIsImVsZW1lbnRfaWQiOiJwcmVfc2JfbHNfY2Jv\nU3RhdHVzIiwiZWxlbWVudF9jbGFzcyI6Iml0ZW0iLCJlbGVtZW50X3ZhbHVl\nIjoiRk9PIiwiZWxlbWVudF9kYXRhIjp7fX19\n"
    },
    {
      "recordId": "49624726681625080004286597647519782632380879253335441410000006",
      "approximateArrivalTimestamp": 1659584601084,
      "data": "eyJldmVudF9uYW1lIjoidHJhbnNhY3Rpb25fb25fbG9hZCIsImV2ZW50X3Rp\nbWVzdGFtcCI6IjIwMjItMTAtMzEgMTQ6MjQ6NDMuNjA2WiIsInRyYW5zYWN0\naW9uX2lkIjoiMjQyOCIsImF1dG9saW5rX3ZlbmRvcl9pZCI6ImNybSIsIm9y\nZ19pZCI6MzQsImFnZW50X2lkIjoxNDI3LCJzb3VyY2VfaWQiOiIzNDpjcm06\nMzA3MjI0MmU0ZmJlNGY2NGI3MDhhZTkzZWNiZTY2OWU6OTM2NmVhY2M0MTAw\nYjJlOWI2MGIyMGNlMTIzZDEwYWQiLCJjb250ZXh0Ijp7Im9yZ19pZCI6MzQs\nImFnZW50X2lkIjoxNDI3LCJzb3VyY2VfaWQiOiIzNDpjcm06MzA3MjI0MmU0\nZmJlNGY2NGI3MDhhZTkzZWNiZTY2OWU6OTM2NmVhY2M0MTAwYjJlOWI2MGIy\nMGNlMTIzZDEwYWQiLCJ2ZW5kb3JfZW5kcG9pbnQiOiJkZW1vLmNybS5jb20i\nLCJwYWdlX3VybCI6Imh0dHBzOi8vZGVtby5jcm0uY29tL0FwcGxpY2F0aW9u\nL3Nob3J0YXBwbGljYXRpb24uYXNweCIsInZlcnNpb24iOiIyLjIzLjAiLCJj\nb21taXRfc2hhIjoiM2ZhZjU3NDZlNTMwYjVhYWNiODQ2YTEzZTQwNjFlOGRi\nYzQ5MmRiYiIsInZlbmRvcl9pZCI6ImNybV90cmFuc2FjdGlvbiIsImF1dG9s\naW5rX3ZlbmRvcl9pZCI6ImNybSIsInRyYW5zYWN0aW9uX2lkIjoiMzA3MjI0\nMmU0ZmJlNGY2NGI3MDhhZTkzZWNiZTY2OWUiLCJ0cmFuc2FjdGlvbl9mcmll\nbmRseV9pZCI6IjI0MjgiLCJ0cmFuc2FjdGlvbiI6eyJsb2FuX3N0YXR1cyI6\nIkFQIiwiY3JlYXRlZF9hdCI6WyI5LzEyLzIwMjIgNToxMzoxOCBQTSJdLCJs\nb2FuX3R5cGUiOiJMb2FuIiwidXNlcl9uYW1lIjoiRE9FIEpPRSIsInVzZXJf\nbW9iaWxlIjoiKzE0MTU0NDQ5NjI1In0sIm9yZ19uYW1lIjoiRmluYW5jaWFs\nIEluc3RpdHV0aW9uIE9uZSIsImFnZW50X25hbWUiOiJIYXJ2ZXkgU3BlY3Rl\nciIsInRyaWdnZXJfa2V5IjoidHJhbnNhY3Rpb25PbkxvYWQvMC9pbW1lZGlh\ndGUiLCJ0cmlnZ2VyX3BheWxvYWQiOiJpbW1lZGlhdGUifSwiZGF0YSI6eyJ0\ncmFuc2FjdGlvbiI6eyJsb2FuX3N0YXR1cyI6IkFQIiwiY3JlYXRlZF9hdCI6\nIjkvMTIvMjAyMiA1OjEzOjE4IFBNIiwibG9hbl90eXBlIjoiTG9hbiIsInVz\nZXJfbmFtZSI6IkRPRSBKb2huIiwidXNlcl9tb2JpbGUiOiIrMTQxNTAwMDEy\nMzQifX0sIm1ldGFkYXRhIjp7InRyYW5zYWN0aW9uX3VuaXFfaWQiOiIzMDcy\nMjQyZTRmYmU0ZjY0YjcwOGFlOTNlY2JlNjY5ZSIsInZlbmRvcl9pZCI6ImNy\nbV90cmFuc2FjdGlvbiIsIm9yZ19uYW1lIjoiRmluYW5jaWFsIEluc3RpdHV0\naW9uIE9uZSIsImFnZW50X25hbWUiOiJIYXJ2ZXkgU3BlY3RlciIsInRyaWdn\nZXJfa2V5IjoidHJhbnNhY3Rpb25PbkxvYWQvMC9pbW1lZGlhdGUiLCJ0cmln\nZ2VyX3BheWxvYWQiOiJpbW1lZGlhdGUiLCJ2ZW5kb3JfZW5kcG9pbnQiOiJk\nZW1vLmNybS5jb20iLCJwYWdlX3VybCI6Imh0dHBzOi8vZGVtby5jcm0uY29t\nL0FwcGxpY2F0aW9uL3Nob3J0YXBwbGljYXRpb24uYXNweCIsInZlcnNpb24i\nOiIyLjIzLjAiLCJjb21taXRfc2hhIjoiM2ZhZjU3NDZlNTMwYjVhYWNiODQ2\nYTEzZTQwNjFlOGRiYzQ5MmRiYiJ9fQ==\n"
    },
    {
      "recordId": "49624726681625080004286593641868598698675428285753589762000000",
      "approximateArrivalTimestamp": 1641337662064,
      "data": "eyJldmVudF9uYW1lIjoidXNlcl9pbmZvIiwiZXZlbnRfdGltZXN0YW1wIjoi\nMjAyMi0wMS0wNCAyMzozMzowMy4yMTdaIiwiZXhlY3V0aW9uX2lkIjoiM2U3\nMzA4MDEtYWIwZS00OGMwLWI3ZTEtM2IzOTQ5Y2JiNWEzIiwiY29udGV4dCI6\neyJvcmdfaWQiOjM0LCJ2ZW5kb3JfaWQiOiJjcm1fdHJhbnNhY3Rpb24iLCJ2\nZW5kb3JfZW5kcG9pbnQiOiJjcm0uZGVtby5jb20iLCJwYWdlX3VybCI6Imh0\ndHBzOi8vY3JtLmRlbW8uY29tL3Nob3J0X2FwcGxpY2F0aW9uLmh0bWwiLCJ0\ncmFuc2FjdGlvbl9pZCI6IjJvOVpTNmIwYjBQVEZaTzdZZjF2QUNneFN2R2Q4\neTVzIiwiYXV0b2xpbmtfdmVuZG9yX2lkIjoiY3JtIiwidXNlcl9uYW1lIjoi\nRE9FLCBKT0UiLCJ1c2VyX21vYmlsZSI6IjQxNTAwMDEyMzQifX0=\n"
    },
    {
      "recordId": "49624726681625080004286593641868598698675428285753589765000000",
      "approximateArrivalTimestamp": 1641337662064,
      "data": "eyJldmVudF9uYW1lIjoidXNlcl9pbmZvIiwiZXZlbnRfdGltZXN0YW1wIjoi\nMjAyMi0wMS0wNCAyMzozMzowMy4yMTdaIiwiZXhlY3V0aW9uX2lkIjoiM2U3\nMzA4MDEtYWIwZS00OGMwLWI3ZTEtM2IzOTQ5Y2JiNWEzIiwiY29udGV4dCI6\neyJvcmdfaWQiOjM0LCJ2ZW5kb3JfaWQiOiJjcm1fdHJhbnNhY3Rpb24iLCJ2\nZW5kb3JfZW5kcG9pbnQiOiJjcm0uZGVtby5jb20iLCJwYWdlX3VybCI6Imh0\ndHBzOi8vY3JtLmRlbW8uY29tL3Nob3J0X2FwcGxpY2F0aW9uLmh0bWwiLCJ0\ncmFuc2FjdGlvbl9pZCI6IjJvOVpTNmIwYjBQVEZaTzdZZjF2QUNneFN2R2Q4\neTVzIiwiYXV0b2xpbmtfdmVuZG9yX2lkIjoiY3JtIiwidXNlcl9uYW1lIjoi\nRE9FLCBKT0UiLCJ1c2VyX21vYmlsZSI6IjQxNTAwMDEyMzQifX0=\n"
    }
  ]
}